
States: 
   q0(I) q1 q2 q3(F) 

Alphabet: 
   0 1 

Trans table:
                   0         1
        q0        q0        q1
        q1        q2        q1
        q2        q0        q3
        q3        q3        q3

